{
  "_class": "group",
  "do_objectID": "29185149-69A0-4CBB-8AB2-03A98A932EDA",
  "exportOptions": {
    "_class": "exportOptions",
    "exportFormats": [
    ],
    "includedLayerIds": [
    ],
    "layerOptions": 0,
    "shouldTrim": false
  },
  "frame": {
    "_class": "rect",
    "constrainProportions": false,
    "height": 625,
    "width": 1448,
    "x": 11,
    "y": 0
  },
  "hasClickThrough": false,
  "isFlippedHorizontal": false,
  "isFlippedVertical": false,
  "isLocked": false,
  "isVisible": true,
  "layerListExpandedType": 2,
  "layers": [
    {
      "class": "shapeGroup",
      "id": "9D366F98-CC74-4E03-AB1E-089F850D7C41"
    },
    {
      "class": "shapeGroup",
      "id": "375A6FE9-9CEE-4C13-821D-1D75C045E132"
    },
    {
      "class": "shapeGroup",
      "id": "642B90C7-4E46-44DF-A1BE-AC6C7778B9D2"
    }
  ],
  "name": "timeline-unit-weekendday-bg",
  "nameIsFixed": true,
  "resizingConstraint": 63,
  "resizingType": 0,
  "rotation": 0,
  "shouldBreakMaskChain": false,
  "style": {
    "_class": "style",
    "endDecorationType": 0,
    "miterLimit": 10,
    "startDecorationType": 0
  }
}