[
	{
		"objectId": "017872AB-F3AD-418B-B839-5CDD15100A4C",
		"kind": "artboard",
		"name": "screen",
		"originalName": "screen",
		"maskFrame": null,
		"layerFrame": {
			"x": -334,
			"y": 68,
			"width": 1729,
			"height": 817
		},
		"visible": true,
		"metadata": {},
		"backgroundColor": "rgba(255, 255, 255, 1)",
		"children": [
			{
				"objectId": "FED3EE96-9366-45B2-A5E0-7B988B4573E3",
				"kind": "group",
				"name": "graph2",
				"originalName": "graph2",
				"maskFrame": null,
				"layerFrame": {
					"x": 239,
					"y": 358,
					"width": 1264,
					"height": 194
				},
				"visible": true,
				"metadata": {
					"opacity": 1
				},
				"image": {
					"path": "images/Layer-graph2-rkvem0vf.png",
					"frame": {
						"x": 239,
						"y": 358,
						"width": 1264,
						"height": 194
					}
				},
				"children": [
					{
						"objectId": "06DAA97F-CEB8-478A-BEA7-E9292BB81D51",
						"kind": "group",
						"name": "issue_boards_organisms_list",
						"originalName": "issue-boards/organisms/list",
						"maskFrame": null,
						"layerFrame": {
							"x": 239,
							"y": 358,
							"width": 240,
							"height": 84
						},
						"visible": true,
						"metadata": {
							"opacity": 1
						},
						"image": {
							"path": "images/Layer-issue_boards_organisms_list-mdzeque5.png",
							"frame": {
								"x": 239,
								"y": 358,
								"width": 240,
								"height": 84
							}
						},
						"children": [
							{
								"objectId": "3A76A006-AC81-413C-8DF2-FD51FD2797BE",
								"kind": "group",
								"name": "issue_boards_molecules_list_header_collapsible",
								"originalName": "issue-boards/molecules/list-header--collapsible",
								"maskFrame": null,
								"layerFrame": {
									"x": 255,
									"y": 370,
									"width": 202,
									"height": 55
								},
								"visible": true,
								"metadata": {
									"opacity": 1
								},
								"image": {
									"path": "images/Layer-issue_boards_molecules_list_header_collapsible-m0e3nkew.png",
									"frame": {
										"x": 255,
										"y": 370,
										"width": 202,
										"height": 55
									}
								},
								"children": [
									{
										"objectId": "735E59C4-BA04-43A2-B193-98E4F9E33FDC",
										"kind": "group",
										"name": "Group_12",
										"originalName": "Group 12",
										"maskFrame": null,
										"layerFrame": {
											"x": 255,
											"y": 370,
											"width": 202,
											"height": 55
										},
										"visible": true,
										"metadata": {
											"opacity": 1
										},
										"image": {
											"path": "images/Layer-Group_12-nzm1rtu5.png",
											"frame": {
												"x": 255,
												"y": 370,
												"width": 202,
												"height": 55
											}
										},
										"children": [
											{
												"objectId": "7497D420-264F-45FE-BE29-1426DBF2DFB9",
												"kind": "group",
												"name": "Group_10",
												"originalName": "Group 10",
												"maskFrame": null,
												"layerFrame": {
													"x": 254.625,
													"y": 370,
													"width": 203,
													"height": 55
												},
												"visible": true,
												"metadata": {
													"opacity": 1
												},
												"image": {
													"path": "images/Layer-Group_10-nzq5n0q0.png",
													"frame": {
														"x": 254.625,
														"y": 370,
														"width": 203,
														"height": 55
													}
												},
												"children": []
											}
										]
									}
								]
							}
						]
					},
					{
						"objectId": "FC06A9C3-0C03-45DB-829A-DCC1B716F004",
						"kind": "group",
						"name": "issue_boards_organisms_list1",
						"originalName": "issue-boards/organisms/list",
						"maskFrame": null,
						"layerFrame": {
							"x": 1263,
							"y": 358,
							"width": 240,
							"height": 169
						},
						"visible": true,
						"metadata": {
							"opacity": 1
						},
						"image": {
							"path": "images/Layer-issue_boards_organisms_list-rkmwnke5.png",
							"frame": {
								"x": 1263,
								"y": 358,
								"width": 240,
								"height": 169
							}
						},
						"children": [
							{
								"objectId": "073A0355-8142-481D-BD92-B35125AB5CFA",
								"kind": "group",
								"name": "issue_boards_molecules_list_header_collapsible1",
								"originalName": "issue-boards/molecules/list-header--collapsible",
								"maskFrame": null,
								"layerFrame": {
									"x": 1263,
									"y": 374,
									"width": 240,
									"height": 153
								},
								"visible": true,
								"metadata": {
									"opacity": 1
								},
								"image": {
									"path": "images/Layer-issue_boards_molecules_list_header_collapsible-mdczqtaz.png",
									"frame": {
										"x": 1263,
										"y": 374,
										"width": 240,
										"height": 153
									}
								},
								"children": [
									{
										"objectId": "17C34B92-7E4A-4694-9078-8C53235920D8",
										"kind": "group",
										"name": "Group_121",
										"originalName": "Group 12",
										"maskFrame": null,
										"layerFrame": {
											"x": 1264,
											"y": 455,
											"width": 238,
											"height": 72
										},
										"visible": true,
										"metadata": {
											"opacity": 1
										},
										"image": {
											"path": "images/Layer-Group_12-mtddmzrc.png",
											"frame": {
												"x": 1264,
												"y": 455,
												"width": 238,
												"height": 72
											}
										},
										"children": [
											{
												"objectId": "33969AB0-812D-40B2-A130-37B9F6BA46FA",
												"kind": "group",
												"name": "Group_101",
												"originalName": "Group 10",
												"maskFrame": null,
												"layerFrame": {
													"x": 1279,
													"y": 455,
													"width": 202,
													"height": 55
												},
												"visible": true,
												"metadata": {
													"opacity": 1
												},
												"image": {
													"path": "images/Layer-Group_10-mzm5njlb.png",
													"frame": {
														"x": 1279,
														"y": 455,
														"width": 202,
														"height": 55
													}
												},
												"children": [
													{
														"objectId": "A747803B-1631-4FD9-9C6D-DDB49ED4C947",
														"kind": "group",
														"name": "icon_check_s",
														"originalName": "icon-check-s",
														"maskFrame": null,
														"layerFrame": {
															"x": 1279,
															"y": 455,
															"width": 24,
															"height": 24
														},
														"visible": true,
														"metadata": {
															"opacity": 1
														},
														"children": [
															{
																"objectId": "D3B37A73-1366-4926-BF80-391A3FDF330E",
																"kind": "group",
																"name": "Group",
																"originalName": "Group",
																"maskFrame": null,
																"layerFrame": {
																	"x": 1279,
																	"y": 455,
																	"width": 24,
																	"height": 24
																},
																"visible": true,
																"metadata": {
																	"opacity": 1
																},
																"image": {
																	"path": "images/Layer-Group-rdncmzdb.png",
																	"frame": {
																		"x": 1279,
																		"y": 455,
																		"width": 24,
																		"height": 24
																	}
																},
																"children": []
															}
														]
													}
												]
											},
											{
												"objectId": "6DF72157-289D-4A56-964B-712D8A22A2A2",
												"kind": "group",
												"name": "global_components_backgrounds_active_border_top_bottom_light",
												"originalName": "global-components/backgrounds/active/border-top-bottom/light",
												"maskFrame": null,
												"layerFrame": {
													"x": 1264,
													"y": 522,
													"width": 238,
													"height": 5
												},
												"visible": true,
												"metadata": {
													"opacity": 1
												},
												"image": {
													"path": "images/Layer-global_components_backgrounds_active_border_top_bottom_light-nkrgnzix.png",
													"frame": {
														"x": 1264,
														"y": 522,
														"width": 238,
														"height": 5
													}
												},
												"children": []
											}
										]
									},
									{
										"objectId": "D71DAB19-86DB-4412-B507-5CD3D0BEDC57",
										"kind": "group",
										"name": "Group_122",
										"originalName": "Group 12",
										"maskFrame": null,
										"layerFrame": {
											"x": 1263,
											"y": 374,
											"width": 240,
											"height": 69
										},
										"visible": true,
										"metadata": {
											"opacity": 1
										},
										"image": {
											"path": "images/Layer-Group_12-rdcxrefc.png",
											"frame": {
												"x": 1263,
												"y": 374,
												"width": 240,
												"height": 69
											}
										},
										"children": [
											{
												"objectId": "F7AE8AA7-7AB9-4883-852A-D3504192AEC9",
												"kind": "group",
												"name": "Group_102",
												"originalName": "Group 10",
												"maskFrame": null,
												"layerFrame": {
													"x": 1262.625,
													"y": 374,
													"width": 240,
													"height": 69
												},
												"visible": true,
												"metadata": {
													"opacity": 1
												},
												"image": {
													"path": "images/Layer-Group_10-rjdbrthb.png",
													"frame": {
														"x": 1262.625,
														"y": 374,
														"width": 240,
														"height": 69
													}
												},
												"children": [
													{
														"objectId": "AFE43A7E-A7C0-4F7E-988E-7EFFC5C50946",
														"kind": "group",
														"name": "global_components_other_avatar_",
														"originalName": "global-components/other/avatar/",
														"maskFrame": null,
														"layerFrame": {
															"x": 1277.625,
															"y": 374,
															"width": 25,
															"height": 24
														},
														"visible": true,
														"metadata": {
															"opacity": 1
														},
														"children": [
															{
																"objectId": "A479236D-3C8E-4D68-90AE-369018EB48F7",
																"kind": "group",
																"name": "global_components_other_avatar_modifier_user_avatar",
																"originalName": "global-components/other/avatar/modifier/user-avatar",
																"maskFrame": null,
																"layerFrame": {
																	"x": 1278,
																	"y": 374,
																	"width": 24,
																	"height": 24
																},
																"visible": false,
																"metadata": {
																	"opacity": 1
																},
																"children": [
																	{
																		"objectId": "A2B59FFC-913C-4D38-9BB9-ED5A4013E46B",
																		"kind": "group",
																		"name": "group_icon",
																		"originalName": "group-icon",
																		"maskFrame": null,
																		"layerFrame": {
																			"x": 1278,
																			"y": 374,
																			"width": 25,
																			"height": 25
																		},
																		"visible": true,
																		"metadata": {
																			"opacity": 1
																		},
																		"image": {
																			"path": "images/Layer-group_icon-qtjcntlg.png",
																			"frame": {
																				"x": 1278,
																				"y": 374,
																				"width": 25,
																				"height": 25
																			}
																		},
																		"children": []
																	}
																]
															}
														]
													},
													{
														"objectId": "AE0B0582-4BFF-46D1-92B9-0D2F9A80B785",
														"kind": "group",
														"name": "icon_check_s1",
														"originalName": "icon-check-s",
														"maskFrame": null,
														"layerFrame": {
															"x": 1278.625,
															"y": 374,
															"width": 25,
															"height": 24
														},
														"visible": true,
														"metadata": {
															"opacity": 1
														},
														"children": [
															{
																"objectId": "5329E263-D2D5-4BF0-97C7-4AEA16F01B9D",
																"kind": "group",
																"name": "Group1",
																"originalName": "Group",
																"maskFrame": null,
																"layerFrame": {
																	"x": 1279,
																	"y": 374,
																	"width": 24,
																	"height": 24
																},
																"visible": true,
																"metadata": {
																	"opacity": 1
																},
																"image": {
																	"path": "images/Layer-Group-ntmyouuy.png",
																	"frame": {
																		"x": 1279,
																		"y": 374,
																		"width": 24,
																		"height": 24
																	}
																},
																"children": []
															}
														]
													}
												]
											}
										]
									}
								]
							}
						]
					},
					{
						"objectId": "774B8E2C-9838-475D-A5DE-6AB48ABA78A8",
						"kind": "group",
						"name": "issue_boards_organisms_list2",
						"originalName": "issue-boards/organisms/list",
						"maskFrame": null,
						"layerFrame": {
							"x": 1007,
							"y": 358,
							"width": 240,
							"height": 96
						},
						"visible": true,
						"metadata": {
							"opacity": 1
						},
						"image": {
							"path": "images/Layer-issue_boards_organisms_list-nzc0qjhf.png",
							"frame": {
								"x": 1007,
								"y": 358,
								"width": 240,
								"height": 96
							}
						},
						"children": [
							{
								"objectId": "EB3FA05F-A519-44E2-BD32-D06852034F92",
								"kind": "group",
								"name": "issue_boards_molecules_list_header_collapsible2",
								"originalName": "issue-boards/molecules/list-header--collapsible",
								"maskFrame": null,
								"layerFrame": {
									"x": 1007,
									"y": 358,
									"width": 240,
									"height": 84
								},
								"visible": true,
								"metadata": {
									"opacity": 1
								},
								"image": {
									"path": "images/Layer-issue_boards_molecules_list_header_collapsible-ruizrkew.png",
									"frame": {
										"x": 1007,
										"y": 358,
										"width": 240,
										"height": 84
									}
								},
								"children": [
									{
										"objectId": "A6EEE701-99E2-4BA4-A3EF-B12442AD8FAB",
										"kind": "group",
										"name": "Group_123",
										"originalName": "Group 12",
										"maskFrame": null,
										"layerFrame": {
											"x": 1022,
											"y": 418,
											"width": 208,
											"height": 24
										},
										"visible": true,
										"metadata": {
											"opacity": 1
										},
										"image": {
											"path": "images/Layer-Group_12-qtzfruu3.png",
											"frame": {
												"x": 1022,
												"y": 418,
												"width": 208,
												"height": 24
											}
										},
										"children": [
											{
												"objectId": "30CCB396-39A1-49FC-BC09-0CD0D26AA9D0",
												"kind": "group",
												"name": "Group_103",
												"originalName": "Group 10",
												"maskFrame": null,
												"layerFrame": {
													"x": 1022.625,
													"y": 418,
													"width": 208,
													"height": 24
												},
												"visible": true,
												"metadata": {
													"opacity": 1
												},
												"image": {
													"path": "images/Layer-Group_10-mzbdq0iz.png",
													"frame": {
														"x": 1022.625,
														"y": 418,
														"width": 208,
														"height": 24
													}
												},
												"children": [
													{
														"objectId": "59AA8632-947B-4EEB-9FD3-BB62A6BD3CBC",
														"kind": "group",
														"name": "icon_check_s2",
														"originalName": "icon-check-s",
														"maskFrame": null,
														"layerFrame": {
															"x": 1022.625,
															"y": 418,
															"width": 24,
															"height": 24
														},
														"visible": true,
														"metadata": {
															"opacity": 1
														},
														"children": [
															{
																"objectId": "989FF0DA-CD59-4354-AFED-0158F9ABB849",
																"kind": "group",
																"name": "Group2",
																"originalName": "Group",
																"maskFrame": null,
																"layerFrame": {
																	"x": 1022.625,
																	"y": 418,
																	"width": 24,
																	"height": 24
																},
																"visible": true,
																"metadata": {
																	"opacity": 1
																},
																"image": {
																	"path": "images/Layer-Group-otg5rkyw.png",
																	"frame": {
																		"x": 1022.625,
																		"y": 418,
																		"width": 24,
																		"height": 24
																	}
																},
																"children": [
																	{
																		"objectId": "72992D29-AE8E-414D-AC2D-72AFB7769EE6",
																		"kind": "group",
																		"name": "icon_job_passed_22px",
																		"originalName": "icon-job-passed-22px",
																		"maskFrame": null,
																		"layerFrame": {
																			"x": 1023.625,
																			"y": 420,
																			"width": 22,
																			"height": 22
																		},
																		"visible": true,
																		"metadata": {
																			"opacity": 1
																		},
																		"image": {
																			"path": "images/Layer-icon_job_passed_22px-nzi5otje.png",
																			"frame": {
																				"x": 1023.625,
																				"y": 420,
																				"width": 22,
																				"height": 22
																			}
																		},
																		"children": []
																	}
																]
															}
														]
													}
												]
											}
										]
									},
									{
										"objectId": "3502FE78-66A7-4BB7-B82D-6F71E566AE8C",
										"kind": "text",
										"name": "title",
										"originalName": "title",
										"maskFrame": null,
										"layerFrame": {
											"x": 1023,
											"y": 378,
											"width": 89,
											"height": 13
										},
										"visible": true,
										"metadata": {
											"opacity": 1,
											"string": "Post-cleanup",
											"css": [
												"font-family: HelveticaNeue-Bold;",
												"font-size: 14px;",
												"color: #2E2E2E;",
												"text-align: left;",
												"line-height: 16px;"
											]
										},
										"image": {
											"path": "images/Layer-title-mzuwmkzf.png",
											"frame": {
												"x": 1023,
												"y": 378,
												"width": 89,
												"height": 13
											}
										},
										"children": []
									}
								]
							}
						]
					},
					{
						"objectId": "B4EECAA6-D237-43EA-A54B-99C9CCD4A58E",
						"kind": "group",
						"name": "issue_boards_organisms_list3",
						"originalName": "issue-boards/organisms/list",
						"maskFrame": null,
						"layerFrame": {
							"x": 751,
							"y": 358,
							"width": 240,
							"height": 97
						},
						"visible": true,
						"metadata": {
							"opacity": 1
						},
						"image": {
							"path": "images/Layer-issue_boards_organisms_list-qjrfrunb.png",
							"frame": {
								"x": 751,
								"y": 358,
								"width": 240,
								"height": 97
							}
						},
						"children": [
							{
								"objectId": "CE942AC7-D171-48FC-AB23-8A719BAD0502",
								"kind": "group",
								"name": "issue_boards_molecules_list_header_collapsible3",
								"originalName": "issue-boards/molecules/list-header--collapsible",
								"maskFrame": null,
								"layerFrame": {
									"x": 751,
									"y": 358,
									"width": 240,
									"height": 84
								},
								"visible": true,
								"metadata": {
									"opacity": 1
								},
								"image": {
									"path": "images/Layer-issue_boards_molecules_list_header_collapsible-q0u5ndjb.png",
									"frame": {
										"x": 751,
										"y": 358,
										"width": 240,
										"height": 84
									}
								},
								"children": [
									{
										"objectId": "0491F7F5-B7AD-4E43-B335-CD3CBA568F55",
										"kind": "group",
										"name": "Group_124",
										"originalName": "Group 12",
										"maskFrame": null,
										"layerFrame": {
											"x": 766,
											"y": 418,
											"width": 208,
											"height": 24
										},
										"visible": true,
										"metadata": {
											"opacity": 1
										},
										"image": {
											"path": "images/Layer-Group_12-mdq5muy3.png",
											"frame": {
												"x": 766,
												"y": 418,
												"width": 208,
												"height": 24
											}
										},
										"children": [
											{
												"objectId": "729549D8-6376-4D54-BC2C-A1F9313474CA",
												"kind": "group",
												"name": "Group_104",
												"originalName": "Group 10",
												"maskFrame": null,
												"layerFrame": {
													"x": 766.625,
													"y": 418,
													"width": 208,
													"height": 24
												},
												"visible": true,
												"metadata": {
													"opacity": 1
												},
												"image": {
													"path": "images/Layer-Group_10-nzi5ntq5.png",
													"frame": {
														"x": 766.625,
														"y": 418,
														"width": 208,
														"height": 24
													}
												},
												"children": [
													{
														"objectId": "9B94250A-2D7A-4242-A503-A7E7E22B5BDC",
														"kind": "group",
														"name": "icon_check_s3",
														"originalName": "icon-check-s",
														"maskFrame": null,
														"layerFrame": {
															"x": 766.625,
															"y": 418,
															"width": 24,
															"height": 24
														},
														"visible": true,
														"metadata": {
															"opacity": 1
														},
														"children": [
															{
																"objectId": "37E491D4-128F-49B4-A58B-082C5BFBA3D7",
																"kind": "group",
																"name": "Group3",
																"originalName": "Group",
																"maskFrame": null,
																"layerFrame": {
																	"x": 766.625,
																	"y": 418,
																	"width": 24,
																	"height": 24
																},
																"visible": true,
																"metadata": {
																	"opacity": 1
																},
																"image": {
																	"path": "images/Layer-Group-mzdfndkx.png",
																	"frame": {
																		"x": 766.625,
																		"y": 418,
																		"width": 24,
																		"height": 24
																	}
																},
																"children": [
																	{
																		"objectId": "3855244B-1ACF-4AB2-B3CD-1A1A8545F172",
																		"kind": "group",
																		"name": "icon_job_passed_22px1",
																		"originalName": "icon-job-passed-22px",
																		"maskFrame": null,
																		"layerFrame": {
																			"x": 767.625,
																			"y": 420,
																			"width": 22,
																			"height": 22
																		},
																		"visible": true,
																		"metadata": {
																			"opacity": 1
																		},
																		"image": {
																			"path": "images/Layer-icon_job_passed_22px-mzg1nti0.png",
																			"frame": {
																				"x": 767.625,
																				"y": 420,
																				"width": 22,
																				"height": 22
																			}
																		},
																		"children": []
																	}
																]
															}
														]
													}
												]
											}
										]
									},
									{
										"objectId": "69D45914-FEFF-4ACB-9ED2-37C6179AA98E",
										"kind": "text",
										"name": "title1",
										"originalName": "title",
										"maskFrame": null,
										"layerFrame": {
											"x": 767,
											"y": 378,
											"width": 62,
											"height": 11
										},
										"visible": true,
										"metadata": {
											"opacity": 1,
											"string": "Post-test",
											"css": [
												"font-family: HelveticaNeue-Bold;",
												"font-size: 14px;",
												"color: #2E2E2E;",
												"text-align: left;",
												"line-height: 16px;"
											]
										},
										"image": {
											"path": "images/Layer-title-njlendu5.png",
											"frame": {
												"x": 767,
												"y": 378,
												"width": 62,
												"height": 11
											}
										},
										"children": []
									}
								]
							}
						]
					},
					{
						"objectId": "52580707-A045-4073-996B-B5C8435DAADC",
						"kind": "group",
						"name": "issue_boards_organisms_list4",
						"originalName": "issue-boards/organisms/list",
						"maskFrame": null,
						"layerFrame": {
							"x": 495,
							"y": 358,
							"width": 240,
							"height": 194
						},
						"visible": true,
						"metadata": {
							"opacity": 1
						},
						"image": {
							"path": "images/Layer-issue_boards_organisms_list-nti1oda3.png",
							"frame": {
								"x": 495,
								"y": 358,
								"width": 240,
								"height": 194
							}
						},
						"children": [
							{
								"objectId": "9094A27B-8032-43DB-A3AB-27E1403AB4DA",
								"kind": "group",
								"name": "issue_boards_molecules_list_header_collapsible4",
								"originalName": "issue-boards/molecules/list-header--collapsible",
								"maskFrame": null,
								"layerFrame": {
									"x": 495,
									"y": 358,
									"width": 240,
									"height": 182
								},
								"visible": true,
								"metadata": {
									"opacity": 1
								},
								"image": {
									"path": "images/Layer-issue_boards_molecules_list_header_collapsible-ota5neey.png",
									"frame": {
										"x": 495,
										"y": 358,
										"width": 240,
										"height": 182
									}
								},
								"children": [
									{
										"objectId": "A38ABF72-51C8-42B1-A402-1F470FCC12C6",
										"kind": "group",
										"name": "Group_125",
										"originalName": "Group 12",
										"maskFrame": null,
										"layerFrame": {
											"x": 510,
											"y": 516,
											"width": 208,
											"height": 24
										},
										"visible": true,
										"metadata": {
											"opacity": 1
										},
										"image": {
											"path": "images/Layer-Group_12-qtm4qujg.png",
											"frame": {
												"x": 510,
												"y": 516,
												"width": 208,
												"height": 24
											}
										},
										"children": [
											{
												"objectId": "E46EB9A0-40DD-4E3B-9931-406F4F90C175",
												"kind": "group",
												"name": "Group_105",
												"originalName": "Group 10",
												"maskFrame": null,
												"layerFrame": {
													"x": 510.625,
													"y": 516,
													"width": 208,
													"height": 24
												},
												"visible": true,
												"metadata": {
													"opacity": 1
												},
												"image": {
													"path": "images/Layer-Group_10-rtq2rui5.png",
													"frame": {
														"x": 510.625,
														"y": 516,
														"width": 208,
														"height": 24
													}
												},
												"children": [
													{
														"objectId": "6E356AFB-737D-4EBD-A31D-1FF278841049",
														"kind": "group",
														"name": "icon_check_s4",
														"originalName": "icon-check-s",
														"maskFrame": null,
														"layerFrame": {
															"x": 510.625,
															"y": 516,
															"width": 24,
															"height": 24
														},
														"visible": true,
														"metadata": {
															"opacity": 1
														},
														"children": [
															{
																"objectId": "113DB4E2-6C3D-4EBF-9F0B-FA878EF6804D",
																"kind": "group",
																"name": "Group4",
																"originalName": "Group",
																"maskFrame": null,
																"layerFrame": {
																	"x": 510.625,
																	"y": 516,
																	"width": 24,
																	"height": 24
																},
																"visible": true,
																"metadata": {
																	"opacity": 1
																},
																"image": {
																	"path": "images/Layer-Group-mtezrei0.png",
																	"frame": {
																		"x": 510.625,
																		"y": 516,
																		"width": 24,
																		"height": 24
																	}
																},
																"children": [
																	{
																		"objectId": "57886C93-40AB-46C5-98EC-25323390271C",
																		"kind": "group",
																		"name": "icon_job_passed_22px2",
																		"originalName": "icon-job-passed-22px",
																		"maskFrame": null,
																		"layerFrame": {
																			"x": 511.625,
																			"y": 518,
																			"width": 22,
																			"height": 22
																		},
																		"visible": true,
																		"metadata": {
																			"opacity": 1
																		},
																		"image": {
																			"path": "images/Layer-icon_job_passed_22px-ntc4odzd.png",
																			"frame": {
																				"x": 511.625,
																				"y": 518,
																				"width": 22,
																				"height": 22
																			}
																		},
																		"children": []
																	}
																]
															}
														]
													}
												]
											}
										]
									},
									{
										"objectId": "951427DA-9AA0-4A1B-BD64-CA4317D89648",
										"kind": "group",
										"name": "Group_126",
										"originalName": "Group 12",
										"maskFrame": null,
										"layerFrame": {
											"x": 495,
											"y": 467,
											"width": 240,
											"height": 37
										},
										"visible": true,
										"metadata": {
											"opacity": 1
										},
										"image": {
											"path": "images/Layer-Group_12-otuxndi3.png",
											"frame": {
												"x": 495,
												"y": 467,
												"width": 240,
												"height": 37
											}
										},
										"children": [
											{
												"objectId": "4F3CB3FA-074D-4E25-9428-7C97C4017BA3",
												"kind": "group",
												"name": "Group_106",
												"originalName": "Group 10",
												"maskFrame": null,
												"layerFrame": {
													"x": 510.625,
													"y": 467,
													"width": 208,
													"height": 24
												},
												"visible": true,
												"metadata": {
													"opacity": 1
												},
												"image": {
													"path": "images/Layer-Group_10-neyzq0iz.png",
													"frame": {
														"x": 510.625,
														"y": 467,
														"width": 208,
														"height": 24
													}
												},
												"children": [
													{
														"objectId": "A4ED5671-0C4D-4166-9296-2015B11032B3",
														"kind": "group",
														"name": "icon_check_s5",
														"originalName": "icon-check-s",
														"maskFrame": null,
														"layerFrame": {
															"x": 510.625,
															"y": 467,
															"width": 24,
															"height": 24
														},
														"visible": true,
														"metadata": {
															"opacity": 1
														},
														"children": [
															{
																"objectId": "0B3B94BF-84DD-4C25-BA9D-82015A259C2E",
																"kind": "group",
																"name": "Group5",
																"originalName": "Group",
																"maskFrame": null,
																"layerFrame": {
																	"x": 510.625,
																	"y": 467,
																	"width": 24,
																	"height": 24
																},
																"visible": true,
																"metadata": {
																	"opacity": 1
																},
																"image": {
																	"path": "images/Layer-Group-meizqjk0.png",
																	"frame": {
																		"x": 510.625,
																		"y": 467,
																		"width": 24,
																		"height": 24
																	}
																},
																"children": [
																	{
																		"objectId": "4CCB3357-9D23-4F2B-8D83-6E1E80AC6ABC",
																		"kind": "group",
																		"name": "icon_job_passed_22px3",
																		"originalName": "icon-job-passed-22px",
																		"maskFrame": null,
																		"layerFrame": {
																			"x": 511.625,
																			"y": 469,
																			"width": 22,
																			"height": 22
																		},
																		"visible": true,
																		"metadata": {
																			"opacity": 1
																		},
																		"image": {
																			"path": "images/Layer-icon_job_passed_22px-nendqjmz.png",
																			"frame": {
																				"x": 511.625,
																				"y": 469,
																				"width": 22,
																				"height": 22
																			}
																		},
																		"children": []
																	}
																]
															}
														]
													}
												]
											}
										]
									},
									{
										"objectId": "D2E12CD5-C4D9-4896-BD57-AF743DA11E70",
										"kind": "group",
										"name": "Group_127",
										"originalName": "Group 12",
										"maskFrame": null,
										"layerFrame": {
											"x": 495,
											"y": 418,
											"width": 240,
											"height": 37
										},
										"visible": true,
										"metadata": {
											"opacity": 1
										},
										"image": {
											"path": "images/Layer-Group_12-rdjfmtjd.png",
											"frame": {
												"x": 495,
												"y": 418,
												"width": 240,
												"height": 37
											}
										},
										"children": [
											{
												"objectId": "6DDBF24A-9928-47BA-A831-1D164013E700",
												"kind": "group",
												"name": "Group_107",
												"originalName": "Group 10",
												"maskFrame": null,
												"layerFrame": {
													"x": 510.625,
													"y": 418,
													"width": 208,
													"height": 24
												},
												"visible": true,
												"metadata": {
													"opacity": 1
												},
												"image": {
													"path": "images/Layer-Group_10-nkreqkyy.png",
													"frame": {
														"x": 510.625,
														"y": 418,
														"width": 208,
														"height": 24
													}
												},
												"children": [
													{
														"objectId": "D187023D-B582-4F5A-AF6C-24431CC6E50F",
														"kind": "group",
														"name": "icon_check_s6",
														"originalName": "icon-check-s",
														"maskFrame": null,
														"layerFrame": {
															"x": 510.625,
															"y": 418,
															"width": 24,
															"height": 24
														},
														"visible": true,
														"metadata": {
															"opacity": 1
														},
														"children": [
															{
																"objectId": "4B4C3738-4D35-432A-9231-53D5A74F1A91",
																"kind": "group",
																"name": "Group6",
																"originalName": "Group",
																"maskFrame": null,
																"layerFrame": {
																	"x": 510.625,
																	"y": 418,
																	"width": 24,
																	"height": 24
																},
																"visible": true,
																"metadata": {
																	"opacity": 1
																},
																"image": {
																	"path": "images/Layer-Group-nei0qzm3.png",
																	"frame": {
																		"x": 510.625,
																		"y": 418,
																		"width": 24,
																		"height": 24
																	}
																},
																"children": [
																	{
																		"objectId": "D2839EC2-DBB2-453D-BA77-20E855BFC50A",
																		"kind": "group",
																		"name": "icon_job_passed_22px4",
																		"originalName": "icon-job-passed-22px",
																		"maskFrame": null,
																		"layerFrame": {
																			"x": 511.625,
																			"y": 420,
																			"width": 22,
																			"height": 22
																		},
																		"visible": true,
																		"metadata": {
																			"opacity": 1
																		},
																		"image": {
																			"path": "images/Layer-icon_job_passed_22px-rdi4mzlf.png",
																			"frame": {
																				"x": 511.625,
																				"y": 420,
																				"width": 22,
																				"height": 22
																			}
																		},
																		"children": []
																	}
																]
															}
														]
													}
												]
											}
										]
									},
									{
										"objectId": "8EF7B5F7-B8E6-4B5D-9515-8334CD0A14CE",
										"kind": "text",
										"name": "title2",
										"originalName": "title",
										"maskFrame": null,
										"layerFrame": {
											"x": 511,
											"y": 378,
											"width": 35,
											"height": 11
										},
										"visible": true,
										"metadata": {
											"opacity": 1,
											"string": "Tests",
											"css": [
												"font-family: HelveticaNeue-Bold;",
												"font-size: 14px;",
												"color: #2E2E2E;",
												"text-align: left;",
												"line-height: 16px;"
											]
										},
										"image": {
											"path": "images/Layer-title-oevgn0i1.png",
											"frame": {
												"x": 511,
												"y": 378,
												"width": 35,
												"height": 11
											}
										},
										"children": []
									}
								]
							}
						]
					}
				]
			},
			{
				"objectId": "E216B468-68C3-482D-A820-AD11C7721439",
				"kind": "group",
				"name": "graph",
				"originalName": "graph",
				"maskFrame": null,
				"layerFrame": {
					"x": 239,
					"y": 358,
					"width": 752,
					"height": 97
				},
				"visible": true,
				"metadata": {
					"opacity": 1
				},
				"image": {
					"path": "images/Layer-graph-rtixnki0.png",
					"frame": {
						"x": 239,
						"y": 358,
						"width": 752,
						"height": 97
					}
				},
				"children": [
					{
						"objectId": "6F43A231-B395-4111-A98D-4A0C71C76C3F",
						"kind": "group",
						"name": "issue_boards_organisms_list5",
						"originalName": "issue-boards/organisms/list",
						"maskFrame": null,
						"layerFrame": {
							"x": 495,
							"y": 358,
							"width": 240,
							"height": 97
						},
						"visible": true,
						"metadata": {
							"opacity": 1
						},
						"children": [
							{
								"objectId": "0FBA8A3D-55F0-4EFB-89AC-109D2A4F45A5",
								"kind": "group",
								"name": "issue_boards_molecules_list_header_collapsible5",
								"originalName": "issue-boards/molecules/list-header--collapsible",
								"maskFrame": null,
								"layerFrame": {
									"x": 495,
									"y": 358,
									"width": 240,
									"height": 48
								},
								"visible": true,
								"metadata": {
									"opacity": 1
								},
								"children": [
									{
										"objectId": "CA484F58-3BEE-4E57-816E-A15B93F8D613",
										"kind": "group",
										"name": "background1",
										"originalName": "background",
										"maskFrame": null,
										"layerFrame": {
											"x": 495,
											"y": 358,
											"width": 240,
											"height": 48
										},
										"visible": true,
										"metadata": {
											"opacity": 1
										},
										"image": {
											"path": "images/Layer-background-q0e0odrg.png",
											"frame": {
												"x": 495,
												"y": 358,
												"width": 240,
												"height": 48
											}
										},
										"children": []
									}
								]
							},
							{
								"objectId": "38CAF075-4ADA-461F-A223-7B3D6DFF58C2",
								"kind": "group",
								"name": "Group_108",
								"originalName": "Group 10",
								"maskFrame": null,
								"layerFrame": {
									"x": 511,
									"y": 418,
									"width": 208,
									"height": 24
								},
								"visible": true,
								"metadata": {
									"opacity": 1
								},
								"children": [
									{
										"objectId": "EA3E394B-7F0A-4A37-900D-10D54A7B907D",
										"kind": "group",
										"name": "icon_check_s7",
										"originalName": "icon-check-s",
										"maskFrame": null,
										"layerFrame": {
											"x": 511,
											"y": 418,
											"width": 208,
											"height": 24
										},
										"visible": true,
										"metadata": {
											"opacity": 1
										},
										"children": [
											{
												"objectId": "2D3AE029-D8B9-4543-B5A8-ACBA35A890F0",
												"kind": "group",
												"name": "Group7",
												"originalName": "Group",
												"maskFrame": null,
												"layerFrame": {
													"x": 511,
													"y": 418,
													"width": 208,
													"height": 24
												},
												"visible": true,
												"metadata": {
													"opacity": 1
												},
												"image": {
													"path": "images/Layer-Group-mkqzquuw.png",
													"frame": {
														"x": 511,
														"y": 418,
														"width": 208,
														"height": 24
													}
												},
												"children": []
											}
										]
									}
								]
							},
							{
								"objectId": "610447E6-2643-4E99-9647-02D811E023A6",
								"kind": "group",
								"name": "global_components_backgrounds_grey_box_light_all_rounded_corners",
								"originalName": "global-components/backgrounds/grey/box/light--all-rounded-corners",
								"maskFrame": null,
								"layerFrame": {
									"x": 495,
									"y": 358,
									"width": 240,
									"height": 97
								},
								"visible": true,
								"metadata": {
									"opacity": 1
								},
								"image": {
									"path": "images/Layer-global_components_backgrounds_grey_box_light_all_rounded_corners-njewndq3.png",
									"frame": {
										"x": 495,
										"y": 358,
										"width": 240,
										"height": 97
									}
								},
								"children": []
							}
						]
					},
					{
						"objectId": "BE03957D-2E7C-4FA2-B14B-921F29BEF4C7",
						"kind": "group",
						"name": "issue_boards_organisms_list6",
						"originalName": "issue-boards/organisms/list",
						"maskFrame": null,
						"layerFrame": {
							"x": 751,
							"y": 358,
							"width": 240,
							"height": 97
						},
						"visible": true,
						"metadata": {
							"opacity": 1
						},
						"children": [
							{
								"objectId": "B1BD8387-AF63-4599-B97C-10E32FE164D4",
								"kind": "group",
								"name": "issue_boards_molecules_list_header_collapsible6",
								"originalName": "issue-boards/molecules/list-header--collapsible",
								"maskFrame": null,
								"layerFrame": {
									"x": 751,
									"y": 358,
									"width": 240,
									"height": 48
								},
								"visible": true,
								"metadata": {
									"opacity": 1
								},
								"image": {
									"path": "images/Layer-issue_boards_molecules_list_header_collapsible-qjfcrdgz.png",
									"frame": {
										"x": 751,
										"y": 358,
										"width": 240,
										"height": 48
									}
								},
								"children": [
									{
										"objectId": "ECE3EC5E-D82B-4065-9322-03A85C89B8FD",
										"kind": "group",
										"name": "background2",
										"originalName": "background",
										"maskFrame": null,
										"layerFrame": {
											"x": 751,
											"y": 358,
											"width": 240,
											"height": 48
										},
										"visible": true,
										"metadata": {
											"opacity": 1
										},
										"image": {
											"path": "images/Layer-background-runfm0vd.png",
											"frame": {
												"x": 751,
												"y": 358,
												"width": 240,
												"height": 48
											}
										},
										"children": []
									}
								]
							},
							{
								"objectId": "DC58CEE3-CE49-45B7-AAB6-CB622E949512",
								"kind": "group",
								"name": "Group_109",
								"originalName": "Group 10",
								"maskFrame": null,
								"layerFrame": {
									"x": 767,
									"y": 418,
									"width": 208,
									"height": 24
								},
								"visible": true,
								"metadata": {
									"opacity": 1
								},
								"children": [
									{
										"objectId": "76A10113-0046-4068-B4F9-24755DEF2E02",
										"kind": "group",
										"name": "icon_check_s8",
										"originalName": "icon-check-s",
										"maskFrame": null,
										"layerFrame": {
											"x": 767,
											"y": 418,
											"width": 208,
											"height": 24
										},
										"visible": true,
										"metadata": {
											"opacity": 1
										},
										"children": [
											{
												"objectId": "0AEDDD16-5F52-481C-9FF5-88D583287C55",
												"kind": "group",
												"name": "Group8",
												"originalName": "Group",
												"maskFrame": null,
												"layerFrame": {
													"x": 767,
													"y": 418,
													"width": 208,
													"height": 24
												},
												"visible": true,
												"metadata": {
													"opacity": 1
												},
												"image": {
													"path": "images/Layer-Group-meffrere.png",
													"frame": {
														"x": 767,
														"y": 418,
														"width": 208,
														"height": 24
													}
												},
												"children": []
											}
										]
									}
								]
							},
							{
								"objectId": "45B72C76-A8B6-42C2-9249-A4407481D8FD",
								"kind": "group",
								"name": "global_components_backgrounds_grey_box_light_all_rounded_corners1",
								"originalName": "global-components/backgrounds/grey/box/light--all-rounded-corners",
								"maskFrame": null,
								"layerFrame": {
									"x": 751,
									"y": 358,
									"width": 240,
									"height": 97
								},
								"visible": true,
								"metadata": {
									"opacity": 1
								},
								"image": {
									"path": "images/Layer-global_components_backgrounds_grey_box_light_all_rounded_corners-ndvcnzjd.png",
									"frame": {
										"x": 751,
										"y": 358,
										"width": 240,
										"height": 97
									}
								},
								"children": []
							}
						]
					},
					{
						"objectId": "3ADC6FFB-479C-489B-9F58-7E3A0E779F4E",
						"kind": "group",
						"name": "issue_boards_organisms_list7",
						"originalName": "issue-boards/organisms/list",
						"maskFrame": null,
						"layerFrame": {
							"x": 239,
							"y": 358,
							"width": 240,
							"height": 97
						},
						"visible": true,
						"metadata": {
							"opacity": 1
						},
						"children": [
							{
								"objectId": "B5BBC115-5F55-4DBE-8FD1-43DCB089DDA5",
								"kind": "group",
								"name": "issue_boards_molecules_list_header_collapsible7",
								"originalName": "issue-boards/molecules/list-header--collapsible",
								"maskFrame": null,
								"layerFrame": {
									"x": 239,
									"y": 358,
									"width": 240,
									"height": 48
								},
								"visible": true,
								"metadata": {
									"opacity": 1
								},
								"image": {
									"path": "images/Layer-issue_boards_molecules_list_header_collapsible-qjvcqkmx.png",
									"frame": {
										"x": 239,
										"y": 358,
										"width": 240,
										"height": 48
									}
								},
								"children": [
									{
										"objectId": "D6A68E7B-102F-4EEC-9829-AA8C5EB792F2",
										"kind": "group",
										"name": "background3",
										"originalName": "background",
										"maskFrame": null,
										"layerFrame": {
											"x": 239,
											"y": 358,
											"width": 240,
											"height": 48
										},
										"visible": true,
										"metadata": {
											"opacity": 1
										},
										"image": {
											"path": "images/Layer-background-rdzbnjhf.png",
											"frame": {
												"x": 239,
												"y": 358,
												"width": 240,
												"height": 48
											}
										},
										"children": []
									}
								]
							},
							{
								"objectId": "CE014874-9A4E-49FE-B1A9-5A4A0DBB3287",
								"kind": "group",
								"name": "Group_1010",
								"originalName": "Group 10",
								"maskFrame": null,
								"layerFrame": {
									"x": 255,
									"y": 418,
									"width": 208,
									"height": 24
								},
								"visible": true,
								"metadata": {
									"opacity": 1
								},
								"children": [
									{
										"objectId": "2A206D9E-07B4-4612-9F99-5C530C4FD672",
										"kind": "group",
										"name": "icon_check_s9",
										"originalName": "icon-check-s",
										"maskFrame": null,
										"layerFrame": {
											"x": 255,
											"y": 418,
											"width": 208,
											"height": 24
										},
										"visible": true,
										"metadata": {
											"opacity": 1
										},
										"children": [
											{
												"objectId": "0DCCCDB7-CA25-4697-A43B-3D5CAD53A478",
												"kind": "group",
												"name": "Group9",
												"originalName": "Group",
												"maskFrame": null,
												"layerFrame": {
													"x": 255,
													"y": 418,
													"width": 208,
													"height": 24
												},
												"visible": true,
												"metadata": {
													"opacity": 1
												},
												"image": {
													"path": "images/Layer-Group-merdq0ne.png",
													"frame": {
														"x": 255,
														"y": 418,
														"width": 208,
														"height": 24
													}
												},
												"children": []
											}
										]
									}
								]
							},
							{
								"objectId": "0EF23126-8E3F-4A19-9772-DA2CFE2CA6EA",
								"kind": "group",
								"name": "global_components_backgrounds_grey_box_light_all_rounded_corners2",
								"originalName": "global-components/backgrounds/grey/box/light--all-rounded-corners",
								"maskFrame": null,
								"layerFrame": {
									"x": 239,
									"y": 358,
									"width": 240,
									"height": 97
								},
								"visible": true,
								"metadata": {
									"opacity": 1
								},
								"image": {
									"path": "images/Layer-global_components_backgrounds_grey_box_light_all_rounded_corners-mevgmjmx.png",
									"frame": {
										"x": 239,
										"y": 358,
										"width": 240,
										"height": 97
									}
								},
								"children": []
							}
						]
					}
				]
			},
			{
				"objectId": "F13521CE-C98D-447B-A64D-CC6711EB0D36",
				"kind": "group",
				"name": "background",
				"originalName": "background",
				"maskFrame": null,
				"layerFrame": {
					"x": -3,
					"y": -1,
					"width": 1772,
					"height": 345
				},
				"visible": true,
				"metadata": {
					"opacity": 1
				},
				"image": {
					"path": "images/Layer-background-rjezntix.png",
					"frame": {
						"x": -3,
						"y": -1,
						"width": 1772,
						"height": 345
					}
				},
				"children": []
			}
		]
	}
]